\relax 
\providecommand\hyper@newdestlabel[2]{}
\providecommand*\new@tpo@label[2]{}
\providecommand\HyperFirstAtBeginDocument{\AtBeginDocument}
\HyperFirstAtBeginDocument{\ifx\hyper@anchor\@undefined
\global\let\oldcontentsline\contentsline
\gdef\contentsline#1#2#3#4{\oldcontentsline{#1}{#2}{#3}}
\global\let\oldnewlabel\newlabel
\gdef\newlabel#1#2{\newlabelxx{#1}#2}
\gdef\newlabelxx#1#2#3#4#5#6{\oldnewlabel{#1}{{#2}{#3}}}
\AtEndDocument{\ifx\hyper@anchor\@undefined
\let\contentsline\oldcontentsline
\let\newlabel\oldnewlabel
\fi}
\fi}
\global\let\hyper@last\relax 
\gdef\HyperFirstAtBeginDocument#1{#1}
\providecommand\HyField@AuxAddToFields[1]{}
\providecommand\HyField@AuxAddToCoFields[2]{}
\select@language{english}
\@writefile{toc}{\select@language{english}}
\@writefile{lof}{\select@language{english}}
\@writefile{lot}{\select@language{english}}
\@writefile{toc}{\vspace {-\cftbeforepartskip }}
\@writefile{lof}{\deactivateaddvspace  }
\@writefile{lot}{\deactivateaddvspace  }
\providecommand\mph@setcol[2]{}
\mph@setcol{ii:i}{\mph@nr}
\mph@setcol{ii:ii}{\mph@nr}
\citation{herremans2014thesis}
\@writefile{toc}{\contentsline {chapter}{\spacedlowsmallcaps  {Acknowledgements}}{i}{chapter*.1}}
\mph@setcol{ii:i}{\mph@nr}
\mph@setcol{ii:ii}{\mph@nr}
\mph@setcol{ii:iii}{\mph@nr}
\mph@setcol{ii:iv}{\mph@nr}
\mph@setcol{ii:v}{\mph@nr}
\@writefile{toc}{\contentsline {chapter}{\spacedlowsmallcaps  {List of Figures}}{vi}{chapter*.3}}
\mph@setcol{ii:vi}{\mph@nr}
\mph@setcol{ii:vii}{\mph@nr}
\@writefile{toc}{\contentsline {chapter}{\spacedlowsmallcaps  {List of Tables}}{viii}{chapter*.4}}
\mph@setcol{ii:viii}{\mph@nr}
\mph@setcol{ii:ix}{\mph@nr}
\mph@setcol{ii:x}{\mph@nr}
\@writefile{toc}{\contentsline {chapter}{\spacedlowsmallcaps  {Introduction}}{1}{chapter*.6}}
\mph@setcol{ii:1}{\mph@nr}
\mph@setcol{ii:2}{\mph@nr}
\@writefile{toc}{\contentsline {part}{\numberline {1}\spacedlowsmallcaps  {Your first part}}{3}{part.1}}
\mph@setcol{ii:3}{\mph@nr}
\mph@setcol{ii:4}{\mph@nr}
\newlabel{par:rules}{{1}{5}{Introduction}{part.1}{}}
\@writefile{toc}{\contentsline {chapter}{\numberline {1}\spacedlowsmallcaps  {Top title of the chapter}}{5}{chapter.1}}
\@writefile{lof}{\addvspace {10\p@ }}
\@writefile{lot}{\addvspace {10\p@ }}
\def\mph@nr{1}
\newlabel{chap:hit}{{1}{5}{\texorpdfstring {\spacedlowsmallcaps {Top title of the chapter}}{Top title of the chapter}}{chapter.1}{}}
\mph@setcol{ii:5}{\mph@nr}
\newlabel{hiteq:ind}{{\relax 1.1}{6}{\texorpdfstring {\spacedlowsmallcaps {Top title of the chapter}}{Top title of the chapter}}{equation.1.0.1}{}}
\mph@setcol{ii:6}{\mph@nr}
\@writefile{lof}{\contentsline {figure}{\numberline {\relax 1.1}{\ignorespaces Example figure}}{7}{figure.1.1}}
\newlabel{fig:balance}{{\relax 1.1}{7}{Example figure}{figure.1.1}{}}
\@writefile{lot}{\contentsline {table}{\numberline {\relax 1.1}{\ignorespaces Example table}}{7}{table.1.1}}
\newlabel{tab:example}{{\relax 1.1}{7}{Example table}{table.1.1}{}}
\mph@setcol{ii:7}{\mph@nr}
\mph@setcol{ii:8}{\mph@nr}
\@writefile{toc}{\contentsline {part}{\numberline {2}\spacedlowsmallcaps  {The other part: experiments}}{9}{part.2}}
\mph@setcol{ii:9}{\mph@nr}
\mph@setcol{ii:10}{\mph@nr}
\newlabel{par:ml}{{2}{11}{\texorpdfstring {\spacedlowsmallcaps {Top title of the chapter}}{Top title of the chapter}}{part.2}{}}
\@writefile{toc}{\contentsline {chapter}{\spacedlowsmallcaps  {Conclusions}}{11}{chapter*.7}}
\newlabel{chap:conclusions}{{2}{11}{Conclusions}{chapter*.7}{}}
\mph@setcol{ii:11}{\mph@nr}
\mph@setcol{ii:12}{\mph@nr}
\@writefile{toc}{\contentsline {chapter}{\spacedlowsmallcaps  {Dutch summary}}{13}{chapter*.8}}
\mph@setcol{ii:13}{\mph@nr}
\mph@setcol{ii:14}{\mph@nr}
\@writefile{toc}{\contentsline {chapter}{\numberline {A}\spacedlowsmallcaps  {My title for appendix}}{15}{appendix.A}}
\@writefile{lof}{\addvspace {10\p@ }}
\@writefile{lot}{\addvspace {10\p@ }}
\def\mph@nr{2}
\newlabel{app:thistitle}{{A}{15}{\texorpdfstring {\spacedlowsmallcaps {My title for appendix}}{My title for appendix}}{appendix.A}{}}
\mph@setcol{ii:15}{\mph@nr}
\mph@setcol{ii:16}{\mph@nr}
\@writefile{toc}{\contentsline {chapter}{\numberline {B}\spacedlowsmallcaps  {Another appendix}}{17}{appendix.B}}
\@writefile{lof}{\addvspace {10\p@ }}
\@writefile{lot}{\addvspace {10\p@ }}
\def\mph@nr{3}
\newlabel{app:second}{{B}{17}{\texorpdfstring {\spacedlowsmallcaps {Another appendix}}{Another appendix}}{appendix.B}{}}
\mph@setcol{ii:17}{\mph@nr}
\mph@setcol{ii:18}{\mph@nr}
\citation{herremans2012composing}
\citation{herremans2013composing}
\citation{herremans2014dance}
\citation{herremans2013}
\citation{herremans2014bagana}
\citation{antor13}
\citation{herremans2014}
\@writefile{toc}{\contentsline {chapter}{\numberline {C}\spacedlowsmallcaps  {List of publications}}{19}{appendix.C}}
\@writefile{lof}{\addvspace {10\p@ }}
\@writefile{lot}{\addvspace {10\p@ }}
\def\mph@nr{4}
\newlabel{chap:papers}{{C}{19}{\texorpdfstring {\spacedlowsmallcaps {List of publications}}{List of publications}}{appendix.C}{}}
\mph@setcol{ii:19}{\mph@nr}
\mph@setcol{ii:20}{\mph@nr}
\bibdata{bib/references}
\bibcite{herremans2014thesis}{{1}{2014}{{Herremans}}{{}}}
\bibstyle{abbrvnat}
\@writefile{toc}{\vspace {\beforebibskip }}
\@writefile{toc}{\contentsline {chapter}{\spacedlowsmallcaps  {Bibliography}}{21}{appendix.C}}
\mph@setcol{ii:21}{\mph@nr}
\@writefile{toc}{\contentsline {chapter}{\spacedlowsmallcaps  {Index}}{22}{chapter*.9}}
\mph@setcol{ii:22}{\mph@nr}
\@LN@col{1}
\mph@setcol{i:23}{\mph@nr}
\@LN@col{2}
\mph@setcol{ii:23}{\mph@nr}
\mph@setcol{ii:23}{\mph@nr}
\mph@setcol{ii:23}{\mph@nr}
\ttl@finishall
\gdef\mph@lastpage{24}
\csname mph@do@warn\endcsname
\global\csname @altsecnumformattrue\endcsname
